<?xml version="1.0" encoding="UTF-8"?>
<!DOCTYPE svg PUBLIC "-//W3C//DTD SVG 1.1//EN" "http://www.w3.org/Graphics/SVG/1.1/DTD/svg11.dtd">
<!-- Creator: CorelDRAW -->
<svg xmlns="http://www.w3.org/2000/svg" xml:space="preserve" width="4.6131mm" height="4.6105mm" style="shape-rendering:geometricPrecision; text-rendering:geometricPrecision; image-rendering:optimizeQuality; fill-rule:evenodd; clip-rule:evenodd"
viewBox="0 0 0.00708771 0.00708372"
 xmlns:xlink="http://www.w3.org/1999/xlink">
 <defs>
  <style type="text/css">
   <![CDATA[
    .fil0 {fill:black}
   ]]>
  </style>
 </defs>
 <g id="Слой_x0020_1">
  <metadata id="CorelCorpID_0Corel-Layer"/>
  <path class="fil0" d="M0.00680486 0.00216237c-0.000373507,-0.000871157 -0.00100836,-0.00150493 -0.0018872,-0.00187967 -0.000438805,-0.000187137 -0.000898966,-0.000282857 -0.00137941,-0.000282857 -0.000480749,0 -0.000937377,9.47978e-005 -0.00137572,0.000282857 -0.000871157,0.000373967 -0.00150893,0.00100698 -0.00188367,0.00187967 -0.000187137,0.000437115 -0.000278862,0.000894971 -0.000278862,0.00137572 0,0.000480442 9.1725e-005,0.000942294 0.000278862,0.00137941 0.000374736,0.000872693 0.00101251,0.0015097 0.00188367,0.00188351 0.000438344,0.000188213 0.000894971,0.00028255 0.00137572,0.00028255 0.000480442,0 0.000940603,-9.52588e-005 0.00137941,-0.00028255 0.000878378,-0.000374582 0.00151339,-0.00101235 0.0018872,-0.00188351 0.000188059,-0.000438498 0.000283011,-0.000898966 0.000283011,-0.00137941 0,-0.000480749 -9.44905e-005,-0.000937377 -0.000283011,-0.00137572zm-0.00056556 0.00294119c-0.000278094,0.000477062 -0.000659283,0.000855792 -0.00113957,0.00113558 -0.000476755,0.000278094 -0.000999602,0.000418524 -0.00156148,0.000418524 -0.000422211,0 -0.000825525,-8.14309e-005 -0.00120902,-0.000248134 -0.000383954,-0.000166856 -0.000714902,-0.000385644 -0.000992228,-0.000662509 -0.000276865,-0.000277326 -0.000497804,-0.0006115 -0.000662509,-0.000996222 -0.000164552,-0.000382725 -0.000244139,-0.000790494 -0.000244139,-0.00121271 0,-0.000561873 0.000137972,-0.00108226 0.000414529,-0.00155779 0.000277787,-0.000477523 0.000658822,-0.000856714 0.00113558,-0.00113558 0.000476294,-0.000278862 0.000995915,-0.000418678 0.00155779,-0.000418678 0.000561873,0 0.00108426,0.000140583 0.00156148,0.000418678 0.000479981,0.000279784 0.000860248,0.000658822 0.00113957,0.00113558 0.000278862,0.000476294 0.000418217,0.000995915 0.000418217,0.00155779 0,0.000561873 -0.000138432,0.00108549 -0.000418217,0.00156547z"/>
  <path class="fil0" d="M0.00361891 0.00365855l0 -0.00209431c0,-0.000125373 -0.000109087,-0.00022647 -0.000234152,-0.00022647 -0.000117383,0 -0.000222168,0.000101097 -0.000222168,0.00022647l0 0.00212673c0,3.84108e-006 7.8358e-006,2.02809e-005 7.8358e-006,3.19578e-005 -7.8358e-006,7.29805e-005 1.22915e-005,0.00013367 6.0689e-005,0.000182374l0.00120856 0.00120871c8.09699e-005,8.08163e-005 0.000230926,8.08163e-005 0.000311281,0 9.31078e-005,-9.31078e-005 8.72693e-005,-0.000227853 0,-0.000315429l-0.00113204 -0.00114003z"/>
 </g>
</svg>
