<?xml version="1.0" encoding="UTF-8"?>
<!DOCTYPE svg PUBLIC "-//W3C//DTD SVG 1.1//EN" "http://www.w3.org/Graphics/SVG/1.1/DTD/svg11.dtd">
<!-- Creator: CorelDRAW -->
<svg xmlns="http://www.w3.org/2000/svg" xml:space="preserve" width="3.1907mm" height="5.9015mm" style="shape-rendering:geometricPrecision; text-rendering:geometricPrecision; image-rendering:optimizeQuality; fill-rule:evenodd; clip-rule:evenodd"
viewBox="0 0 0.00310734 0.00574731"
 xmlns:xlink="http://www.w3.org/1999/xlink">
 <defs>
  <style type="text/css">
   <![CDATA[
    .fil0 {fill:#064A91}
   ]]>
  </style>
 </defs>
 <g id="Слой_x0020_1">
  <metadata id="CorelCorpID_0Corel-Layer"/>
  <path class="fil0" d="M0.00299057 9.73873e-007l-0.000745402 -1.16865e-006c-0.000837336,0 -0.00137861,0.000555302 -0.00137861,0.00141445l0 0.0006523 -0.000749492 0c-6.44704e-005,0 -0.00011706,5.21996e-005 -0.00011706,0.00011706l0 0.000945046c0,6.45678e-005 5.25891e-005,0.00011706 0.00011706,0.00011706l0.000749492 0 0 0.00238453c0,6.44704e-005 5.25891e-005,0.000116962 0.000117352,0.000116962l0.000977476 0c6.47625e-005,0 0.000117352,-5.24917e-005 0.000117352,-0.000116962l0 -0.00238453 0.000876193 0c6.47625e-005,0 0.00011706,-5.24917e-005 0.00011706,-0.00011706l5.84324e-007 -0.000945046c0,-3.09692e-005 -1.2563e-005,-6.06723e-005 -3.44751e-005,-8.28766e-005 -2.19121e-005,-2.19121e-005 -5.16153e-005,-3.41829e-005 -8.28766e-005,-3.41829e-005l-0.000876486 0 0 -0.000552965c0,-0.000265672 6.33991e-005,-0.000400554 0.000409319,-0.000400554l0.000502226 -2.92162e-007c6.47625e-005,0 0.00011706,-5.25891e-005 0.00011706,-0.00011706l0 -0.000877362c0,-6.48599e-005 -5.2297e-005,-0.00011706 -0.000116767,-0.000117352z"/>
 </g>
</svg>
